<?xml version="1.0" standalone="no"?>
<!DOCTYPE svg PUBLIC "-//W3C//DTD SVG 1.1//EN" "http://www.w3.org/Graphics/SVG/1.1/DTD/svg11.dtd" >
<svg xmlns="http://www.w3.org/2000/svg">
<metadata>Generated by IcoMoon</metadata>
<defs>
<font id="icomoon" horiz-adv-x="1024">
<font-face units-per-em="1024" ascent="960" descent="-64" />
<missing-glyph horiz-adv-x="1024" />
<glyph unicode="&#x20;" horiz-adv-x="512" d="" />
<glyph unicode="&#xe900;" glyph-name="account" d="M953.373 577.242h-92.122c-6.683 0-11.741 3.251-14.27 9.573-2.529 6.141-1.445 12.102 3.251 16.799l65.027 65.027c13.367 13.367 20.773 31.069 20.773 50.035s-7.406 36.668-20.773 50.035l-82.91 82.91c-12.825 12.825-31.069 20.231-50.035 20.231s-37.029-7.406-50.035-20.231l-65.027-65.027c-3.071-3.071-6.683-4.696-10.477-4.696-1.987 0-4.155 0.361-6.322 1.264-6.141 2.529-9.573 7.587-9.573 14.27v92.122c0.361 38.836-31.249 70.446-70.085 70.446h-117.41c-39.016 0-70.627-31.611-70.627-70.627v-92.122c0-6.683-3.251-11.56-9.573-14.27-2.168-0.903-4.155-1.264-6.141-1.264-3.793 0-7.406 1.626-10.477 4.696l-65.027 65.027c-12.825 12.825-31.069 20.231-50.035 20.231s-37.029-7.406-50.035-20.231l-82.91-82.91c-13.367-13.367-20.773-31.069-20.773-50.035 0-18.786 7.406-36.668 20.773-50.035l65.027-65.027c4.696-4.696 5.961-10.657 3.251-16.799-2.529-6.141-7.406-9.573-14.27-9.573h-92.122c-38.836 0.181-70.446-31.43-70.446-70.446v-117.41c0-38.836 31.611-70.446 70.627-70.446h92.122c6.683 0 11.741-3.251 14.27-9.573 2.529-6.141 1.445-11.922-3.251-16.799l-65.027-65.027c-13.367-13.367-20.773-31.069-20.773-49.854s7.406-36.668 20.773-50.035l82.91-82.91c12.825-12.825 31.069-20.231 50.035-20.231s37.029 7.406 50.035 20.231l65.027 65.027c3.071 3.071 6.683 4.696 10.477 4.696 1.987 0 4.155-0.542 6.322-1.264 6.141-2.529 9.573-7.406 9.573-14.27v-92.122c0-39.016 31.611-70.627 70.627-70.627h117.41c39.016 0 70.627 31.611 70.627 70.627v92.122c0 6.683 3.251 11.741 9.573 14.27 2.168 0.903 4.155 1.264 6.322 1.264 3.793 0 7.406-1.626 10.477-4.696l65.027-65.027c12.825-12.825 31.069-20.231 50.035-20.231s37.029 7.406 50.035 20.231l82.91 82.91c13.367 13.367 20.773 31.069 20.773 50.035 0 18.786-7.406 36.668-20.773 49.854l-65.027 65.027c-4.696 4.696-5.961 10.477-3.432 16.799 2.529 6.141 7.406 9.573 14.27 9.573h92.122c39.016 0 70.627 31.611 70.627 70.627v117.41c-0.723 38.836-32.333 70.446-71.349 70.446zM947.774 394.985h-86.342c-37.752 0-70.266-21.676-84.716-56.718-14.451-34.862-6.864-73.336 19.869-100.070l61.053-61.053-74.781-74.962-61.053 61.053c-17.521 17.521-40.281 27.095-64.485 27.095-12.102 0-24.024-2.348-35.584-7.225-34.862-14.451-56.718-46.964-56.718-84.716v-86.342h-105.85v86.342c0 37.752-21.676 70.266-56.538 84.716-11.56 4.877-23.482 7.225-35.584 7.225-24.024 0-46.964-9.573-64.485-27.095l-61.053-61.053-74.962 74.962 61.053 61.053c26.733 26.733 34.32 65.027 19.869 100.070-14.451 34.862-46.964 56.718-84.716 56.718h-86.342v105.85h86.342c37.752 0 70.266 21.676 84.716 56.718 14.451 34.862 6.864 73.336-19.869 100.070l-61.053 61.053 74.962 74.781 61.053-61.053c17.521-17.521 40.281-27.095 64.485-27.095 12.102 0 24.024 2.348 35.584 7.225 35.043 14.451 56.718 46.964 56.718 84.716v86.342h105.85v-86.342c0-37.752 21.676-70.266 56.718-84.716 11.56-4.696 23.482-7.225 35.584-7.225 24.024 0 46.964 9.573 64.485 27.095l61.053 61.053 74.781-74.962-61.053-61.053c-26.733-26.733-34.32-65.027-19.869-100.070 14.451-34.862 46.964-56.718 84.716-56.718h86.342v-105.669zM512.090 631.973c-101.515 0-184.064-82.549-184.064-183.883 0-101.515 82.549-184.064 184.064-184.064s184.064 82.549 184.064 184.064c-0.181 101.334-82.729 183.883-184.064 183.883zM512.090 340.434c-59.247 0-107.656 48.229-107.656 107.656 0 59.247 48.229 107.656 107.656 107.656 59.247 0 107.656-48.229 107.656-107.656-0.181-59.428-48.409-107.656-107.656-107.656z" />
<glyph unicode="&#xe901;" glyph-name="clockin" d="M986.429 640.824c-0.903 2.168-1.626 4.155-2.529 6.322-51.841 122.468-150.105 220.732-272.573 272.754-2.168 0.903-4.155 1.806-6.322 2.529-59.608 24.205-124.816 37.571-192.914 37.571s-133.306-13.367-192.914-37.752c-2.168-0.903-4.155-1.626-6.322-2.529-122.468-51.841-220.732-150.105-272.573-272.573-0.903-2.168-1.806-4.155-2.529-6.322-24.385-59.608-37.752-124.636-37.752-192.914 0-68.098 13.367-133.306 37.752-192.914 0.903-2.168 1.626-4.155 2.529-6.322 51.841-122.468 150.105-220.732 272.754-272.573 2.168-0.903 4.155-1.806 6.322-2.529 59.608-24.385 124.636-37.752 192.914-37.752 68.098 0 133.306 13.367 192.914 37.752 2.168 0.903 4.155 1.626 6.322 2.529 122.468 51.841 220.732 150.105 272.754 272.754 0.903 2.168 1.806 4.155 2.529 6.322 24.385 59.608 37.752 124.636 37.752 192.914-0.542 68.098-13.909 133.125-38.113 192.734zM944.342 409.074c-18.605-208.449-184.967-374.81-393.415-393.415v96.277h-78.033v-96.277c-208.087 18.605-374.63 184.967-393.235 393.415h96.096v78.033h-96.096c18.605 208.087 185.147 374.63 393.415 393.235v-96.277h77.852v96.277c208.268-18.605 374.63-184.967 393.415-393.235h-96.277v-78.033h96.277zM789.36 646.062l-273.115-246.743-236.447 149.021 41.726 66.111 186.231-117.772 229.402 207.184z" />
<glyph unicode="&#xe902;" glyph-name="dashboard" d="M0 960v-1024h1024v1024h-1024zM78.033 881.967h868.115v-195.624h-868.115v195.624zM298.223 13.852h-220.37v594.639h220.37v-594.639zM946.148 13.852h-569.892v594.639h569.892v-594.639z" />
<glyph unicode="&#xe903;" glyph-name="employee" d="M663.098 538.767c52.203 43.352 85.439 108.74 85.439 181.896 0 130.416-106.211 236.627-236.627 236.627s-236.627-106.211-236.627-236.627c0-72.975 33.236-138.364 85.439-181.896-208.629-64.666-360.721-259.567-360.721-489.331 0-26.011 1.987-52.022 5.78-77.672l5.058-32.875h1002.324l5.058 32.875c3.974 25.65 5.78 51.661 5.78 77.672 0 229.763-152.092 424.665-360.902 489.331zM352.954 720.483c0 87.606 71.349 158.956 158.956 158.956 87.787 0 159.136-71.349 159.136-158.956 0-87.787-71.349-158.956-159.136-158.956-87.606 0-158.956 71.349-158.956 158.956zM945.245 16.381h-866.489c-0.903 11.019-1.264 22.037-1.264 33.056 0 239.517 194.901 434.419 434.419 434.419s434.599-194.901 434.599-434.419c0-11.019-0.361-22.037-1.264-33.056z" />
<glyph unicode="&#xe904;" glyph-name="location" d="M512.090 960c-195.082 0-353.676-158.594-353.676-353.496 0-41.907 7.406-82.187 20.773-119.397 7.948-21.856 17.883-42.81 29.804-62.499l5.238-8.49 0.181-0.361 297.5-479.757 303.28 489.15c11.741 19.508 21.676 40.281 29.443 61.957 13.547 37.391 20.773 77.491 20.773 119.397 0.181 194.901-158.414 353.496-353.315 353.496zM260.832 487.107c-17.341 36.126-26.914 76.768-26.914 119.397 0 153.356 124.816 278.173 278.173 278.173s278.173-124.816 278.173-278.173c0-42.81-9.754-83.271-26.914-119.397-13.367-27.998-21.134-43.171-44.797-75.323v0l-85.077-137.28-121.204-195.263-121.204 195.263-85.077 137.28zM512.090 769.072c-89.593 0-162.568-72.975-162.568-162.568 0-47.145 20.231-89.774 52.383-119.397 28.901-26.733 67.737-43.171 110.185-43.171s81.104 16.257 110.185 43.171c32.152 29.624 52.383 72.253 52.383 119.397 0 89.593-72.975 162.568-162.568 162.568zM512.090 693.569c48.048 0 87.064-39.016 87.064-87.064s-39.016-87.245-87.064-87.245c-48.048 0-87.245 39.016-87.245 87.245s39.197 87.064 87.245 87.064z" />
<glyph unicode="&#xe905;" glyph-name="tad" d="M729.751 960h-435.322c-55.996 0-101.334-45.519-101.334-101.334v-821.331c0-55.996 45.519-101.334 101.334-101.334h435.322c55.996 0 101.334 45.519 101.334 101.334v821.331c0 55.815-45.519 101.334-101.334 101.334zM270.947 858.666c0 13.005 10.477 23.482 23.482 23.482h435.322c13.005 0 23.482-10.477 23.482-23.482v-655.692h-482.286v655.692zM753.053 37.334c0-13.005-10.477-23.482-23.482-23.482h-435.141c-13.005 0-23.482 10.477-23.482 23.482v87.606h482.105v-87.606zM541.533 70.39c0-16.261-13.182-29.443-29.443-29.443s-29.443 13.182-29.443 29.443c0 16.261 13.182 29.443 29.443 29.443s29.443-13.182 29.443-29.443z" />
<glyph unicode="&#xe906;" glyph-name="drawer" d="M0.723 808.992h1022.736v-141.073h-1022.736v141.073zM0.723 518.537h1022.736v-141.073h-1022.736v141.073zM0.723 228.081h1022.736v-141.073h-1022.736v141.073z" />
</font></defs></svg>